%YAML 1.1
%TAG !u! tag:unity3d.com,2011:
--- !u!1001 &100100000
Prefab:
  m_ObjectHideFlags: 1
  serializedVersion: 2
  m_Modification:
    m_TransformParent: {fileID: 0}
    m_Modifications: []
    m_RemovedComponents: []
  m_SourcePrefab: {fileID: 0}
  m_RootGameObject: {fileID: 1133169990777950}
  m_IsPrefabAsset: 1
--- !u!1 &1133169990777950
GameObject:
  m_ObjectHideFlags: 0
  m_CorrespondingSourceObject: {fileID: 0}
  m_PrefabInternal: {fileID: 100100000}
  serializedVersion: 6
  m_Component:
  - component: {fileID: 4968409512399152}
  - component: {fileID: 212794250530936594}
  - component: {fileID: 114794918152390252}
  - component: {fileID: 50997356265185014}
  - component: {fileID: 61440759320299566}
  - component: {fileID: 60129123873472182}
  m_Layer: 0
  m_Name: donguri
  m_TagString: donguri
  m_Icon: {fileID: 0}
  m_NavMeshLayer: 0
  m_StaticEditorFlags: 0
  m_IsActive: 1
--- !u!4 &4968409512399152
Transform:
  m_ObjectHideFlags: 1
  m_CorrespondingSourceObject: {fileID: 0}
  m_PrefabInternal: {fileID: 100100000}
  m_GameObject: {fileID: 1133169990777950}
  m_LocalRotation: {x: 0, y: 0, z: 0, w: 1}
  m_LocalPosition: {x: -4.497, y: 2.459, z: -1}
  m_LocalScale: {x: 0.280598, y: 0.302498, z: 1}
  m_Children: []
  m_Father: {fileID: 0}
  m_RootOrder: 0
  m_LocalEulerAnglesHint: {x: 0, y: 0, z: 0}
--- !u!50 &50997356265185014
Rigidbody2D:
  serializedVersion: 4
  m_ObjectHideFlags: 1
  m_CorrespondingSourceObject: {fileID: 0}
  m_PrefabInternal: {fileID: 100100000}
  m_GameObject: {fileID: 1133169990777950}
  m_BodyType: 0
  m_Simulated: 1
  m_UseFullKinematicContacts: 0
  m_UseAutoMass: 0
  m_Mass: 1
  m_LinearDrag: 0
  m_AngularDrag: 0.05
  m_GravityScale: 1
  m_Material: {fileID: 0}
  m_Interpolate: 0
  m_SleepingMode: 1
  m_CollisionDetection: 0
  m_Constraints: 0
--- !u!60 &60129123873472182
PolygonCollider2D:
  m_ObjectHideFlags: 1
  m_CorrespondingSourceObject: {fileID: 0}
  m_PrefabInternal: {fileID: 100100000}
  m_GameObject: {fileID: 1133169990777950}
  m_Enabled: 1
  m_Density: 1
  m_Material: {fileID: 0}
  m_IsTrigger: 0
  m_UsedByEffector: 0
  m_UsedByComposite: 0
  m_Offset: {x: 0, y: 0}
  m_SpriteTilingProperty:
    border: {x: 0, y: 0, z: 0, w: 0}
    pivot: {x: 0.5, y: 0.5}
    oldSize: {x: 4, y: 3.9}
    newSize: {x: 4, y: 3.9}
    adaptiveTilingThreshold: 0.5
    drawMode: 0
    adaptiveTiling: 0
  m_AutoTiling: 0
  m_Points:
    m_Paths:
    - - {x: 1.1899999, y: -1.18}
      - {x: 1.38, y: -0.71}
      - {x: 1.43, y: -0.51}
      - {x: 1.48, y: -0.39999998}
      - {x: 1.5, y: -0.29999998}
      - {x: 1.64, y: -0.25}
      - {x: 1.62, y: -0.17999999}
      - {x: 1.6999999, y: -0.14}
      - {x: 1.7099999, y: -0.099999994}
      - {x: 1.67, y: -0.06}
      - {x: 1.7099999, y: 0}
      - {x: 1.7099999, y: 0.06}
      - {x: 1.6999999, y: 0.099999994}
      - {x: 1.6999999, y: 0.31}
      - {x: 1.6899999, y: 0.38}
      - {x: 1.5799999, y: 0.41}
      - {x: 1.5699999, y: 0.48999998}
      - {x: 1.55, y: 0.52}
      - {x: 1.4699999, y: 0.53}
      - {x: 1.4, y: 0.5}
      - {x: 1.41, y: 0.61}
      - {x: 1.23, y: 0.66999996}
      - {x: 1.27, y: 0.72999996}
      - {x: 1.28, y: 0.97999996}
      - {x: 1.25, y: 1.06}
      - {x: 1.02, y: 1.06}
      - {x: 0.97999996, y: 1.03}
      - {x: 0.95, y: 0.84999996}
      - {x: 0.93, y: 0.76}
      - {x: 0.89, y: 0.66999996}
      - {x: 0.72999996, y: 0.69}
      - {x: 0.68, y: 0.63}
      - {x: 0.59999996, y: 0.65}
      - {x: 0.53, y: 0.57}
      - {x: 0.45, y: 0.55}
      - {x: 0.32, y: 0.47}
      - {x: 0.28, y: 0.42}
      - {x: 0.19999999, y: 0.29999998}
      - {x: 0.19999999, y: 0.19999999}
      - {x: 0.17, y: 0.08}
      - {x: 0.24, y: 0.049999997}
      - {x: 0.29, y: -0.06}
      - {x: 0.25, y: -0.12}
      - {x: 0.19, y: -0.32999998}
      - {x: 0.14999999, y: -0.41}
      - {x: 0.14, y: -0.53}
      - {x: 0.11, y: -0.57}
      - {x: 0.099999994, y: -0.63}
      - {x: 0.099999994, y: -1.03}
      - {x: 0.11, y: -1.11}
      - {x: 0.14, y: -1.3299999}
      - {x: 0.22999999, y: -1.51}
      - {x: 0.28, y: -1.5699999}
      - {x: 0.32999998, y: -1.5999999}
      - {x: 0.45999998, y: -1.63}
      - {x: 0.59, y: -1.63}
      - {x: 0.7, y: -1.62}
      - {x: 0.78999996, y: -1.5899999}
      - {x: 0.95, y: -1.48}
      - {x: 1.09, y: -1.35}
    - - {x: -0.17, y: -0.69}
      - {x: -0.12, y: -0.53999996}
      - {x: -0.099999994, y: -0.42999998}
      - {x: -0.099999994, y: -0.34}
      - {x: -0.11, y: -0.14999999}
      - {x: -0.12, y: -0.089999996}
      - {x: -0.13, y: 0.049999997}
      - {x: -0.16, y: 0.21}
      - {x: -0.19999999, y: 0.31}
      - {x: -0.24, y: 0.48999998}
      - {x: -0.31, y: 0.7}
      - {x: -0.22, y: 0.76}
      - {x: -0.21, y: 0.81}
      - {x: -0.19999999, y: 0.90999997}
      - {x: -0.19, y: 0.95}
      - {x: -0.26, y: 0.98999995}
      - {x: -0.25, y: 1.06}
      - {x: -0.35, y: 1.16}
      - {x: -0.42, y: 1.31}
      - {x: -0.52, y: 1.36}
      - {x: -0.59, y: 1.3}
      - {x: -0.64, y: 1.38}
      - {x: -0.7, y: 1.39}
      - {x: -0.78999996, y: 1.3299999}
      - {x: -0.84, y: 1.41}
      - {x: -0.89, y: 1.4}
      - {x: -1.02, y: 1.3399999}
      - {x: -1.02, y: 1.4599999}
      - {x: -1.12, y: 1.65}
      - {x: -1.1899999, y: 1.6899999}
      - {x: -1.23, y: 1.6899999}
      - {x: -1.38, y: 1.5799999}
      - {x: -1.41, y: 1.52}
      - {x: -1.38, y: 1.4399999}
      - {x: -1.3399999, y: 1.3399999}
      - {x: -1.31, y: 1.18}
      - {x: -1.4499999, y: 1.14}
      - {x: -1.5699999, y: 0.98999995}
      - {x: -1.55, y: 0.91999996}
      - {x: -1.61, y: 0.88}
      - {x: -1.67, y: 0.82}
      - {x: -1.6899999, y: 0.68}
      - {x: -1.67, y: 0.58}
      - {x: -1.6999999, y: 0.55}
      - {x: -1.6999999, y: 0.52}
      - {x: -1.68, y: 0.45999998}
      - {x: -1.65, y: 0.41}
      - {x: -1.61, y: 0.29999998}
      - {x: -1.54, y: 0.34}
      - {x: -1.4499999, y: 0.26}
      - {x: -1.4399999, y: 0.12}
      - {x: -1.38, y: -0.06}
      - {x: -1.37, y: -0.14}
      - {x: -1.3, y: -0.32999998}
      - {x: -1.17, y: -0.59}
      - {x: -1.09, y: -0.71}
      - {x: -0.87, y: -0.94}
      - {x: -0.71999997, y: -1.03}
      - {x: -0.56, y: -1.03}
      - {x: -0.47, y: -0.98999995}
      - {x: -0.38, y: -0.94}
      - {x: -0.29, y: -0.85999995}
--- !u!61 &61440759320299566
BoxCollider2D:
  m_ObjectHideFlags: 1
  m_CorrespondingSourceObject: {fileID: 0}
  m_PrefabInternal: {fileID: 100100000}
  m_GameObject: {fileID: 1133169990777950}
  m_Enabled: 0
  m_Density: 1
  m_Material: {fileID: 0}
  m_IsTrigger: 0
  m_UsedByEffector: 0
  m_UsedByComposite: 0
  m_Offset: {x: 0, y: 0.033655107}
  m_SpriteTilingProperty:
    border: {x: 0, y: 0, z: 0, w: 0}
    pivot: {x: 0.5, y: 0.5}
    oldSize: {x: 4, y: 3.9}
    newSize: {x: 4, y: 3.9}
    adaptiveTilingThreshold: 0.5
    drawMode: 0
    adaptiveTiling: 0
  m_AutoTiling: 0
  serializedVersion: 2
  m_Size: {x: 4, y: 3.4288354}
  m_EdgeRadius: 0
--- !u!114 &114794918152390252
MonoBehaviour:
  m_ObjectHideFlags: 1
  m_CorrespondingSourceObject: {fileID: 0}
  m_PrefabInternal: {fileID: 100100000}
  m_GameObject: {fileID: 1133169990777950}
  m_Enabled: 1
  m_EditorHideFlags: 0
  m_Script: {fileID: 11500000, guid: a46575e6e14abb04d89f1f62f78e6a93, type: 3}
  m_Name: 
  m_EditorClassIdentifier: 
  destroyTimer: 5
--- !u!212 &212794250530936594
SpriteRenderer:
  m_ObjectHideFlags: 1
  m_CorrespondingSourceObject: {fileID: 0}
  m_PrefabInternal: {fileID: 100100000}
  m_GameObject: {fileID: 1133169990777950}
  m_Enabled: 1
  m_CastShadows: 0
  m_ReceiveShadows: 0
  m_DynamicOccludee: 1
  m_MotionVectors: 1
  m_LightProbeUsage: 1
  m_ReflectionProbeUsage: 1
  m_RenderingLayerMask: 4294967295
  m_Materials:
  - {fileID: 10754, guid: 0000000000000000f000000000000000, type: 0}
  m_StaticBatchInfo:
    firstSubMesh: 0
    subMeshCount: 0
  m_StaticBatchRoot: {fileID: 0}
  m_ProbeAnchor: {fileID: 0}
  m_LightProbeVolumeOverride: {fileID: 0}
  m_ScaleInLightmap: 1
  m_PreserveUVs: 0
  m_IgnoreNormalsForChartDetection: 0
  m_ImportantGI: 0
  m_StitchLightmapSeams: 0
  m_SelectedEditorRenderState: 0
  m_MinimumChartSize: 4
  m_AutoUVMaxDistance: 0.5
  m_AutoUVMaxAngle: 89
  m_LightmapParameters: {fileID: 0}
  m_SortingLayerID: 0
  m_SortingLayer: 0
  m_SortingOrder: 0
  m_Sprite: {fileID: 21300000, guid: 518414e01a5787a43aa803243b54e8dc, type: 3}
  m_Color: {r: 1, g: 1, b: 1, a: 1}
  m_FlipX: 0
  m_FlipY: 0
  m_DrawMode: 0
  m_Size: {x: 4, y: 3.9}
  m_AdaptiveModeThreshold: 0.5
  m_SpriteTileMode: 0
  m_WasSpriteAssigned: 1
  m_MaskInteraction: 0
  m_SpriteSortPoint: 0
